% Generated by IEEEtran.bst, version: 1.13 (2008/09/30)
\begin{thebibliography}{10}
\providecommand{\url}[1]{#1}
\csname url@samestyle\endcsname
\providecommand{\newblock}{\relax}
\providecommand{\bibinfo}[2]{#2}
\providecommand{\BIBentrySTDinterwordspacing}{\spaceskip=0pt\relax}
\providecommand{\BIBentryALTinterwordstretchfactor}{4}
\providecommand{\BIBentryALTinterwordspacing}{\spaceskip=\fontdimen2\font plus
\BIBentryALTinterwordstretchfactor\fontdimen3\font minus
  \fontdimen4\font\relax}
\providecommand{\BIBforeignlanguage}[2]{{%
\expandafter\ifx\csname l@#1\endcsname\relax
\typeout{** WARNING: IEEEtran.bst: No hyphenation pattern has been}%
\typeout{** loaded for the language `#1'. Using the pattern for}%
\typeout{** the default language instead.}%
\else
\language=\csname l@#1\endcsname
\fi
#2}}
\providecommand{\BIBdecl}{\relax}
\BIBdecl

\bibitem{singh2012predictive}
S.~Singh, M.~James, and M.~Rudary, ``Predictive state representations: A new
  theory for modeling dynamical systems,'' \emph{arXiv preprint
  arXiv:1207.4167}, 2012.

\bibitem{boots2011online}
B.~Boots and G.~J. Gordon, ``An online spectral learning algorithm for
  partially observable nonlinear dynamical systems,'' in \emph{Twenty-Fifth
  AAAI Conference on Artificial Intelligence}, 2011.

\bibitem{hefny2015supervised}
A.~Hefny, C.~Downey, and G.~J. Gordon, ``Supervised learning for dynamical
  system learning,'' in \emph{Advances in neural information processing
  systems}, 2015, pp. 1963--1971.

\bibitem{wolfe2005learning}
B.~Wolfe, M.~R. James, and S.~Singh, ``Learning predictive state
  representations in dynamical systems without reset,'' in \emph{Proceedings of
  the 22nd international conference on Machine learning}, 2005, pp. 980--987.

\bibitem{downey2017predictive}
C.~Downey, A.~Hefny, B.~Boots, G.~J. Gordon, and B.~Li, ``Predictive state
  recurrent neural networks,'' in \emph{Advances in Neural Information
  Processing Systems}, 2017, pp. 6053--6064.

\bibitem{boots2009learning}
B.~Boots, ``Learning stable linear dynamical systems,'' \emph{Online]. Avail.:
  https://www. ml. cmu. edu/research/dap-papers/dap\_boots. pdf}, 2009.

\bibitem{belanger2015linear}
D.~Belanger and S.~Kakade, ``A linear dynamical system model for text,'' in
  \emph{International Conference on Machine Learning}, 2015, pp. 833--842.

\bibitem{haarnoja2016backprop}
T.~Haarnoja, A.~Ajay, S.~Levine, and P.~Abbeel, ``Backprop kf: Learning
  discriminative deterministic state estimators,'' in \emph{Advances in Neural
  Information Processing Systems}, 2016, pp. 4376--4384.

\bibitem{pascanu2013difficulty}
R.~Pascanu, T.~Mikolov, and Y.~Bengio, ``On the difficulty of training
  recurrent neural networks,'' in \emph{International conference on machine
  learning}, 2013, pp. 1310--1318.

\bibitem{hochreiter1997long}
S.~Hochreiter and J.~Schmidhuber, ``Long short-term memory,'' \emph{Neural
  computation}, vol.~9, no.~8, pp. 1735--1780, 1997.

\bibitem{boden2002guide}
M.~Boden, ``A guide to recurrent neural networks and backpropagation,''
  \emph{the Dallas project}, 2002.

\end{thebibliography}
