\relax 
\citation{singh2012predictive}
\citation{boots2011online}
\citation{hefny2015supervised}
\@writefile{toc}{\contentsline {section}{\numberline {I}Introduction}{2}\protected@file@percent }
\@writefile{toc}{\contentsline {subsection}{\numberline {I-A}review}{2}\protected@file@percent }
\newlabel{sec:intro}{{I-A}{2}}
\@writefile{toc}{\contentsline {section}{\numberline {II}Problem}{2}\protected@file@percent }
\newlabel{sec:problem}{{II}{2}}
\citation{wolfe2005learning}
\citation{wolfe2005learning}
\citation{wolfe2005learning}
\citation{downey2017predictive}
\citation{downey2017predictive}
\citation{boots2009learning}
\citation{belanger2015linear}
\citation{haarnoja2016backprop}
\citation{downey2017predictive}
\citation{pascanu2013difficulty}
\@writefile{lot}{\contentsline {table}{\numberline {I}{\ignorespaces system-dynamics matrix $D$\nobreakspace  {}\cite  {wolfe2005learning}}}{3}\protected@file@percent }
\newlabel{tab:systemdynamics}{{I}{3}}
\newlabel{eq:prediction}{{1}{3}}
\newlabel{eq:prediction}{{2}{3}}
\newlabel{eq:prediction}{{3}{3}}
\@writefile{toc}{\contentsline {subsection}{\numberline {II-A}Problem formulation}{3}\protected@file@percent }
\newlabel{subsec:Problem}{{II-A}{3}}
\citation{hochreiter1997long}
\citation{PalopoliMF20i2mtc}
\@writefile{lof}{\contentsline {figure}{\numberline {1}{\ignorespaces LSTM Structure.}}{4}\protected@file@percent }
\newlabel{fig:LSTMStructure}{{1}{4}}
\@writefile{toc}{\contentsline {subsection}{\numberline {II-B}Motion Model}{4}\protected@file@percent }
\citation{boden2002guide}
\@writefile{lof}{\contentsline {figure}{\numberline {2}{\ignorespaces The BiLSTM model used for mobile robot localization.}}{5}\protected@file@percent }
\newlabel{fig:BiLSTMModel}{{2}{5}}
\newlabel{eq:DTsystemUni}{{8}{5}}
\@writefile{toc}{\contentsline {section}{\numberline {III}Filter Design}{5}\protected@file@percent }
\newlabel{sec:SLAM}{{III}{5}}
\@writefile{toc}{\contentsline {subsection}{\numberline {III-A}Extended Kalman Filter}{5}\protected@file@percent }
\newlabel{eq:Predstate}{{9}{5}}
\newlabel{eq:PredCov}{{10}{5}}
\newlabel{eq:bayes2}{{11}{5}}
\@writefile{toc}{\contentsline {subsection}{\numberline {III-B}The Method}{5}\protected@file@percent }
\newlabel{eq:OutputFuncDisc}{{12}{5}}
\@writefile{lof}{\contentsline {figure}{\numberline {3}{\ignorespaces The simulated environment used for localization.}}{6}\protected@file@percent }
\newlabel{fig:Map}{{3}{6}}
\newlabel{eq:ObsvXY}{{13}{6}}
\@writefile{toc}{\contentsline {section}{\numberline {IV}Preliminary results}{6}\protected@file@percent }
\newlabel{sec:results}{{IV}{6}}
\@writefile{lof}{\contentsline {figure}{\numberline {4}{\ignorespaces RMSE and the corresponding estimated trajectories by EKF (the left side images) and BiLSTM-EKF (the right side images) based on three anchors reported in the Figure over $97$ Monte Carlo runs. The thick solid red line is the actual robot trajectory.}}{6}\protected@file@percent }
\newlabel{fig:RMSETrajectory1}{{4}{6}}
\@writefile{lof}{\contentsline {figure}{\numberline {5}{\ignorespaces RMSE and the corresponding estimated trajectories by EKF (the left side images) and BiLSTM-EKF (the right side images) based on three anchors reported in the Figure over $83$ Monte Carlo runs. The thick solid red line is the actual robot trajectory.}}{7}\protected@file@percent }
\newlabel{fig:RMSETrajectory2}{{5}{7}}
\@writefile{lof}{\contentsline {figure}{\numberline {6}{\ignorespaces RMSE and the corresponding estimated trajectories by EKF (the left side images) and BiLSTM-EKF (the right side images) based on three anchors reported in the Figure over $130$ Monte Carlo runs. The thick solid red line is the actual robot trajectory.}}{7}\protected@file@percent }
\newlabel{fig:RMSETrajectory3}{{6}{7}}
\@writefile{lof}{\contentsline {figure}{\numberline {7}{\ignorespaces RMSE and the corresponding estimated trajectories by EKF (the left side images) and BiLSTM-EKF (the right side images) based on three anchors reported in the Figure over $97$ Monte Carlo runs. The thick solid red line is the actual robot trajectory.}}{8}\protected@file@percent }
\newlabel{fig:RMSETrajectory4}{{7}{8}}
\@writefile{lof}{\contentsline {figure}{\numberline {8}{\ignorespaces Path followed by the robot on the plane (solid line), estimated by the BiLSTM-EKF (blue line) and from the EKF (green line). All the noises $\sigma _v$ and $\sigma _{\omega }$, and $\sigma _r$ are assumed uniformly distributed.}}{8}\protected@file@percent }
\newlabel{fig:SingleTrajectory}{{8}{8}}
\@writefile{lof}{\contentsline {figure}{\numberline {9}{\ignorespaces Performance plots of the BiLSTM neural network in the first epoch. RMSE and loss of the training and validation sets are represented by the solid and dashed lines, respectively.}}{8}\protected@file@percent }
\newlabel{fig:BiLSTMRMSE}{{9}{8}}
\bibstyle{IEEEtran}
\bibdata{biblio}
\bibcite{singh2012predictive}{1}
\bibcite{boots2011online}{2}
\bibcite{hefny2015supervised}{3}
\bibcite{wolfe2005learning}{4}
\bibcite{downey2017predictive}{5}
\bibcite{boots2009learning}{6}
\bibcite{belanger2015linear}{7}
\bibcite{haarnoja2016backprop}{8}
\bibcite{pascanu2013difficulty}{9}
\bibcite{hochreiter1997long}{10}
\bibcite{boden2002guide}{11}
\@writefile{toc}{\contentsline {section}{\numberline {V}Conclusion}{9}\protected@file@percent }
\newlabel{sec:conclusion}{{V}{9}}
\@writefile{toc}{\contentsline {section}{References}{9}\protected@file@percent }
